// EVENT 0330
Name "オーブ6つ揃う"

If(8,537)
 If(8,538)
  If(8,540)
   If(8,541)
    If(8,542)
     ChangeVariable(1001,1001,0,0,32)
     243()
     241(bytes(0x04,0x08,0x6f,0x3a,0x0d,0x52,0x50,0x47,0x3a,0x3a,0x42,0x47,0x4d,0x08,0x3a,0x0a,0x40,0x6e,0x61,0x6d,0x65,0x49,0x22,0x14,0x73,0x63,0x65,0x6e,0x65,0x5f,0x65,0x70,0x69,0x6c,0x6f,0x67,0x75,0x65,0x32,0x06,0x3a,0x06,0x45,0x54,0x3a,0x0c,0x40,0x76,0x6f,0x6c,0x75,0x6d,0x65,0x69,0x69,0x3a,0x0b,0x40,0x70,0x69,0x74,0x63,0x68,0x69,0x69))
     If(0,4,0)
      ShowMessageFace("alice_fc5",1,0,2,1)
      ShowMessage("\\n<Alice>これでオーブが六つ揃ったな。")
      ShowMessage("それでは、神鳥のほこらに行くとしよう！")
      0()
     EndIf()
     If(0,5,0)
      ShowMessageFace("iriasu_fc4",0,0,2,2)
      ShowMessage("\\n<Ilias>オーブが六つ揃いましたね……")
      ShowMessage("それでは、神鳥のほこらに行きましょう！")
      0()
     EndIf()
     ShowMessageFace("ruka_fc1",0,0,2,3)
     ShowMessage("\\n<Luka>神鳥のほこら……確か、ゴルド西の砂漠地帯だったね。")
     If(0,4,0)
      ShowMessageFace("alice_fc5",1,0,2,4)
      ShowMessage("\\n<Alice>ほこらにある祭壇に、六つのオーブを捧げれば――")
      ShowMessage("大空を駆ける神鳥が復活するのだ。")
      ShowMessageFace("alice_fc5",1,0,2,5)
      ShowMessage("\\n<Alice>神鳥に運んでもらえれば、ヘルゴンド大陸まで行ける。")
      ShowMessage("魔王城に乗り込む事も可能になるのだ。")
      ShowMessageFace("ruka_fc1",0,0,2,6)
      ShowMessage("\\n<Luka>よし……さっそく、神鳥のほこらに行こう！")
      ShowMessage("伝説の神鳥を、僕達の手で復活させるんだ！")
      0()
     EndIf()
     If(0,5,0)
      ShowMessageFace("iriasu_fc4",0,0,2,7)
      ShowMessage("\\n<Ilias>ほこらにある祭壇に、六つのオーブを捧げれば……")
      ShowMessage("我々全員が背に乗れるほどの大怪鳥が復活するのです。")
      ShowMessageFace("iriasu_fc4",0,0,2,8)
      ShowMessage("\\n<Ilias>怪鳥に運んでもらえれば、ヘルゴンド大陸までひとっとび。")
      ShowMessage("魔王城に乗り込む事が可能となるでしょう！")
      ShowMessageFace("heinrich_fc1",1,0,2,9)
      ShowMessage("\\n<Heinrich>イリアス様、これで夢の試練も終わりなのですね？")
      ShowMessageFace("iriasu_fc4",2,0,2,10)
      ShowMessage("\\n<Ilias>……………………")
      ShowMessageFace("iriasu_fc4",2,0,2,11)
      ShowMessage("\\n<Ilias>ハインリヒ……")
      ShowMessage("これが夢の試練などでない事、いつから気付いていましたか？")
      ShowMessageFace("heinrich_fc1",2,0,2,12)
      ShowMessage("\\n<Heinrich>それは、えっと……")
      ShowMessageFace("heinrich_fc1",7,0,2,13)
      ShowMessage("\\n<Heinrich>……最初からです。")
      ShowMessageFace("iriasu_fc4",2,0,2,14)
      ShowMessage("\\n<Ilias>私達がどこから来たのか、あなたなら察しているでしょう？")
      ShowMessageFace("heinrich_fc1",7,0,2,15)
      ShowMessage("\\n<Heinrich>未来の世界……でしょうか。")
      ShowMessage("皆の格好や、言葉などから類推してですけど。")
      If(0,6,0)
       ShowMessageFace("sonia_fc2",2,0,2,16)
       ShowMessage("\\n<Sonya>だいたいバレちゃってる……ど、どうするの？")
       0()
      Else()
       ShowMessageFace("ruka_fc1",0,0,2,17)
       ShowMessage("\\n<Luka>だいたいバレちゃってる……ど、どうするの？")
       0()
      EndIf()
      ShowMessageFace("iriasu_fc4",7,0,2,18)
      ShowMessage("\\n<Ilias>ハインリヒ……現在、全ての世界に危機が迫っています。")
      ShowMessage("我々の来た世界も、そしてあなたのいる世界にも……")
      ShowMessageFace("",0,0,2,19)
      ShowMessage("イリアスは、旅の事情を簡単に説明した！")
      ShowMessageFace("iriasu_fc4",7,0,2,20)
      ShowMessage("\\n<Ilias>……ハインリヒ、あらためて命じます。")
      ShowMessage("我々と共に、全ての世界を守るために戦うのです。")
      ShowMessageFace("heinrich_fc1",1,0,2,21)
      ShowMessage("\\n<Heinrich>もちろん、お供しましょう。")
      ShowMessage("勇者の剣は、全ての人々を守るための剣ですから。")
      ShowMessageFace("ruka_fc1",0,0,2,22)
      ShowMessage("\\n<Luka>でも、いいんですか……？")
      ShowMessage("ハインリヒは魔王を倒すための旅の途中なんじゃ……")
      ShowMessageFace("iriasu_fc4",7,0,2,23)
      ShowMessage("\\n<Ilias>言ったでしょう……")
      ShowMessage("全ての並行世界が、破滅の危機に直面しています。")
      ShowMessageFace("iriasu_fc4",7,0,2,24)
      ShowMessage("\\n<Ilias>ハインリヒの世界も例外でない以上、彼も当事者なのですよ。")
      ShowMessageFace("heinrich_fc1",7,0,2,25)
      ShowMessage("\\n<Heinrich>そういう事だよ、ルカ君。")
      ShowMessage("僕の世界まで危機に晒されているなら、黙ってはいられない。")
      ShowMessageFace("heinrich_fc1",7,0,2,26)
      ShowMessage("\\n<Heinrich>あらためて、一緒に戦おう！")
      ShowMessage("共に力を合わせ、世界の危機に立ち向かうんだ！")
      ShowMessageFace("ruka_fc1",0,0,2,27)
      ShowMessage("\\n<Luka>おおお……")
      ShowMessage("僕は今、感動を隠せない……")
      If(0,6,0)
       ShowMessageFace("sonia_fc1",0,0,2,28)
       ShowMessage("\\n<Sonya>よかったね、ルカ。")
       ShowMessage("ずっと憧れだった伝説の英雄と一緒に戦えるなんて。")
       ShowMessageFace("heinrich_fc1",7,0,2,29)
       ShowMessage("\\n<Heinrich>伝説の英雄ってのは、君達の世界の未来の僕……")
       ShowMessage("ここにいる僕はまだまだ、伝説未満の現役勇者さ。")
       0()
      EndIf()
      ShowMessageFace("ruka_fc1",0,0,2,30)
      ShowMessage("\\n<Luka>力強い仲間も得たし……それじゃあ、神鳥のほこらに行こう！")
      ShowMessage("伝説の神鳥を、僕達の手で復活させるんだ！")
      0()
     EndIf()
     244()
     EndEventProcessing()
     0()
    EndIf()
    0()
   EndIf()
   0()
  EndIf()
  0()
 EndIf()
 0()
EndIf()
0()
